<?xml version="1.0" standalone="no"?>
<!DOCTYPE svg PUBLIC "-//W3C//DTD SVG 20010904//EN"
 "http://www.w3.org/TR/2001/REC-SVG-20010904/DTD/svg10.dtd">
<svg version="1.0" xmlns="http://www.w3.org/2000/svg"
 width="293.000000pt" height="293.000000pt" viewBox="0 0 293.000000 293.000000"
 preserveAspectRatio="xMidYMid meet">
<metadata>
Created by potrace 1.14, written by Peter Selinger 2001-2017
</metadata>
<g transform="translate(0.000000,293.000000) scale(0.100000,-0.100000)"
fill="#000000" stroke="none">
<path d="M478 2915 c-211 -52 -375 -204 -450 -415 l-23 -65 0 -965 0 -965 24
-69 c71 -209 230 -358 440 -412 86 -21 87 -22 1016 -20 685 2 937 5 958 14 15
6 27 10 27 7 0 -2 28 8 62 22 143 58 258 163 327 299 67 132 64 86 67 1074 2
526 -1 925 -7 969 -22 176 -111 325 -253 425 -75 52 -121 74 -206 97 -60 16
-140 18 -995 18 -758 -1 -941 -3 -987 -14z"/>
</g>
</svg>
