{
  "key": "60001c737c4da20036a01b72",
  "name": "Obe",
  "title": "Obe",
  "dependecy": [],
  "keyCategory": "5ff43d86ac39550035f8b127",
  "roomAffectation": ["5ff44061ac39550035f8b12a"],
  "curiculums": [],
  "equipment": [],
  "slots": [],
  "length": 480,
  "occurrence": 1,
  "existingSessions": []
}
