{
  "activities": [
    {
      "stewards": ["5ffdb740133f1d0035f1e25b"],
      "places": [],
      "_id": "60001c737c4da20036a01b72",
      "desc": "Formation",
      "project": "5ff43d44ac39550035f8b124",
      "slots": [
        {
          "_id": "5ff4432cac39550035f8b12d",
          "duration": 120
        },
        {
          "_id": "5ff4432cac39550035f8b12c",
          "duration": 120
        }
      ],
      "category": "5ff43d86ac39550035f8b127",
      "sessionOccurence": 3,
      "createdAt": "2021-01-14T10:26:59.731Z",
      "updatedAt": "2021-04-13T12:06:46.688Z",
      "__v": 6,
      "name": "Obe",
      "numberOfSessions": 1
    },
    {
      "stewards": ["5ffdb740133f1d0035f1e25b"],
      "places": [],
      "_id": "6075896b5720ef0036edefc3",
      "name": "test",
      "project": "5ff43d44ac39550035f8b124",
      "slots": [
        {
          "_id": "5ff4432cac39550035f8b12d",
          "duration": 120
        },
        {
          "_id": "5ff4432cac39550035f8b12c",
          "duration": 120
        }
      ],
      "category": "5ff43d92ac39550035f8b128",
      "numberOfSessions": 1,
      "createdAt": "2021-04-13T12:07:07.063Z",
      "updatedAt": "2021-04-13T12:07:07.063Z",
      "__v": 0
    }
  ],
  "project": {
    "openingState": "notOpened",
    "full": false,
    "_id": "5ff43d44ac39550035f8b124",
    "name": "Test Quentin",
    "start": "2021-04-16T18:40:56+02:00",
    "end": "2021-04-18T18:40:59+02:00",
    "createdAt": "2021-01-05T10:19:48.106Z",
    "updatedAt": "2021-03-05T12:16:21.393Z",
    "__v": 10,
    "availabilitySlots": [
      {
        "_id": "60422111a7d0cf0035e49bf4",
        "start": "2021-01-08T07:00:05.000Z",
        "end": "2021-01-08T15:00:00.000Z"
      },
      {
        "_id": "60422111a7d0cf0035e49bf3",
        "start": "2021-01-09T07:00:26.000Z",
        "end": "2021-01-09T15:00:00.000Z"
      },
      {
        "_id": "60422111a7d0cf0035e49bf2",
        "start": "2021-01-10T07:00:52.000Z",
        "end": "2021-01-10T15:00:52.000Z"
      }
    ],
    "registrations": null,
    "id": "5ff43d44ac39550035f8b124"
  },
  "places": [
    {
      "_id": "5ff44061ac39550035f8b12a",
      "name": "Salle 1",
      "project": "5ff43d44ac39550035f8b124",
      "createdAt": "2021-01-05T10:33:05.649Z",
      "updatedAt": "2021-04-13T12:25:14.168Z",
      "__v": 5,
      "availabilitySlots": [
        {
          "_id": "607587a45720ef0036edef91",
          "start": "2021-01-08T07:00:00.000Z",
          "end": "2021-01-08T16:00:18.000Z"
        },
        {
          "_id": "60758daa5720ef0036edf014",
          "start": "2021-01-09T07:36:43.000Z",
          "end": "2021-01-09T16:00:51.000Z"
        },
        {
          "_id": "60758daa5720ef0036edf013",
          "start": "2021-01-10T07:00:41.000Z",
          "end": "2021-01-10T16:00:49.000Z"
        }
      ]
    }
  ],
  "stewards": [
    {
      "_id": "5ff44051ac39550035f8b129",
      "firstName": "Admin",
      "lastName": "Toto",
      "project": "5ff43d44ac39550035f8b124",
      "createdAt": "2021-01-05T10:32:49.970Z",
      "updatedAt": "2021-04-13T12:12:17.748Z",
      "__v": 2,
      "availabilitySlots": [
        {
          "_id": "60758aa15720ef0036edefe2",
          "start": "2021-01-08T09:00:33.000Z",
          "end": "2021-01-10T16:00:45.000Z"
        }
      ]
    },
    {
      "_id": "5ffdb740133f1d0035f1e25b",
      "firstName": "orga 2",
      "lastName": "fdfdf",
      "project": "5ff43d44ac39550035f8b124",
      "createdAt": "2021-01-12T14:50:40.373Z",
      "updatedAt": "2021-04-13T12:00:53.206Z",
      "__v": 5,
      "availabilitySlots": [
        {
          "_id": "6053646b7b4129010ffd625e",
          "start": "2021-01-08T07:00:54.000Z",
          "end": "2021-01-08T17:00:00.000Z"
        },
        {
          "_id": "6053646b7b4129010ffd625d",
          "start": "2021-01-09T07:00:31.000Z",
          "end": "2021-01-09T16:00:00.000Z"
        },
        {
          "_id": "6053646b7b4129010ffd625c",
          "start": "2021-01-10T07:00:14.000Z",
          "end": "2021-01-10T17:00:00.000Z"
        }
      ]
    }
  ],
  "sessions": [
    {
      "stewards": ["5ffdb740133f1d0035f1e25b"],
      "places": ["5ff44061ac39550035f8b12a"],
      "slots": [
        {
          "stewards": ["5ffdb740133f1d0035f1e25b"],
          "places": ["5ff44061ac39550035f8b12a"],
          "_id": "607fe98d28aa41002a7734e1",
          "start": "2021-01-09T07:36:43.000Z",
          "end": "2021-01-09T09:36:43.000Z",
          "duration": 120,
          "stewardsSessionSynchro": true,
          "placesSessionSynchro": true,
          "createdAt": "2021-04-21T08:59:57.538Z",
          "updatedAt": "2021-04-21T08:59:57.538Z",
          "__v": 0,
          "session": null,
          "id": "607fe98d28aa41002a7734e1"
        },
        {
          "stewards": ["5ffdb740133f1d0035f1e25b"],
          "places": ["5ff44061ac39550035f8b12a"],
          "_id": "607fe98d28aa41002a7734e2",
          "start": "2021-01-09T09:36:43.000Z",
          "end": "2021-01-09T11:36:43.000Z",
          "duration": 120,
          "stewardsSessionSynchro": true,
          "placesSessionSynchro": true,
          "createdAt": "2021-04-21T08:59:57.540Z",
          "updatedAt": "2021-04-21T08:59:57.540Z",
          "__v": 0,
          "session": null,
          "id": "607fe98d28aa41002a7734e2"
        }
      ],
      "isScheduleFrozen": false,
      "curriculums": [],
      "volume": 1,
      "dependsOn": [],
      "isInscriptionFree": false,
      "isSecret": false,
      "_id": "607fe98d28aa41002a7734e3",
      "activity": "60001c737c4da20036a01b72",
      "start": "2021-01-09T07:36:43.000Z",
      "end": "2021-01-09T11:36:43.000Z",
      "project": "5ff43d44ac39550035f8b124",
      "createdAt": "2021-04-21T08:59:57.542Z",
      "updatedAt": "2021-04-21T08:59:57.542Z",
      "__v": 0
    },
    {
      "stewards": ["5ffdb740133f1d0035f1e25b"],
      "places": ["5ff44061ac39550035f8b12a"],
      "slots": [
        {
          "stewards": ["5ffdb740133f1d0035f1e25b"],
          "places": ["5ff44061ac39550035f8b12a"],
          "_id": "607fe98d28aa41002a7734e4",
          "start": "2021-01-10T07:00:52.000Z",
          "end": "2021-01-10T09:00:52.000Z",
          "duration": 120,
          "stewardsSessionSynchro": true,
          "placesSessionSynchro": true,
          "createdAt": "2021-04-21T08:59:57.545Z",
          "updatedAt": "2021-04-21T08:59:57.545Z",
          "__v": 0,
          "session": null,
          "id": "607fe98d28aa41002a7734e4"
        },
        {
          "stewards": ["5ffdb740133f1d0035f1e25b"],
          "places": ["5ff44061ac39550035f8b12a"],
          "_id": "607fe98d28aa41002a7734e5",
          "start": "2021-01-10T09:00:52.000Z",
          "end": "2021-01-10T11:00:52.000Z",
          "duration": 120,
          "stewardsSessionSynchro": true,
          "placesSessionSynchro": true,
          "createdAt": "2021-04-21T08:59:57.547Z",
          "updatedAt": "2021-04-21T08:59:57.547Z",
          "__v": 0,
          "session": null,
          "id": "607fe98d28aa41002a7734e5"
        }
      ],
      "isScheduleFrozen": false,
      "curriculums": [],
      "volume": 1,
      "dependsOn": [],
      "isInscriptionFree": false,
      "isSecret": false,
      "_id": "607fe98d28aa41002a7734e6",
      "activity": "6075896b5720ef0036edefc3",
      "start": "2021-01-10T07:00:52.000Z",
      "end": "2021-01-10T11:00:52.000Z",
      "project": "5ff43d44ac39550035f8b124",
      "createdAt": "2021-04-21T08:59:57.548Z",
      "updatedAt": "2021-04-21T08:59:57.548Z",
      "__v": 0
    }
  ],
  "categories": [
    {
      "_id": "5ff43d86ac39550035f8b127",
      "title": "Orga",
      "color": "#673ab7",
      "project": "5ff43d44ac39550035f8b124",
      "createdAt": "2021-01-05T10:20:54.128Z",
      "updatedAt": "2021-01-14T11:24:09.973Z",
      "__v": 0
    },
    {
      "_id": "5ff43d92ac39550035f8b128",
      "title": "Test1 ",
      "project": "5ff43d44ac39550035f8b124",
      "createdAt": "2021-01-05T10:21:06.181Z",
      "updatedAt": "2021-01-05T10:21:06.181Z",
      "__v": 0
    },
    {
      "_id": "600029eb7c4da20036a01bfa",
      "title": "try",
      "project": "5ff43d44ac39550035f8b124",
      "createdAt": "2021-01-14T11:24:27.587Z",
      "updatedAt": "2021-01-14T11:24:58.224Z",
      "__v": 0,
      "color": "#673ab7"
    },
    {
      "_id": "60002a167c4da20036a01bfd",
      "title": "try0",
      "project": "5ff43d44ac39550035f8b124",
      "createdAt": "2021-01-14T11:25:10.036Z",
      "updatedAt": "2021-01-14T11:25:10.036Z",
      "__v": 0
    }
  ]
}
