<?xml version="1.0" standalone="no"?>
<!DOCTYPE svg PUBLIC "-//W3C//DTD SVG 20010904//EN"
 "http://www.w3.org/TR/2001/REC-SVG-20010904/DTD/svg10.dtd">
<svg version="1.0" xmlns="http://www.w3.org/2000/svg"
 width="293.000000pt" height="293.000000pt" viewBox="0 0 293.000000 293.000000"
 preserveAspectRatio="xMidYMid meet">
<metadata>
Created by potrace 1.14, written by Peter Selinger 2001-2017
</metadata>
<g transform="translate(0.000000,293.000000) scale(0.100000,-0.100000)"
fill="#000000" stroke="none">
<path d="M460 2914 c-214 -56 -388 -232 -445 -449 -22 -87 -23 -1910 0 -1995
44 -167 176 -330 326 -403 142 -69 114 -68 1147 -65 l927 3 81 27 c98 34 181
87 256 164 73 77 112 141 146 239 l27 80 3 927 c2 792 0 937 -12 998 -47 223
-232 416 -456 475 -82 22 -1917 21 -2000 -1z m520 -391 c25 -17 122 -109 216
-204 154 -157 175 -183 212 -259 56 -113 75 -207 69 -335 -8 -163 -18 -185
-353 -722 -164 -263 -318 -500 -343 -527 -92 -98 -195 -102 -252 -10 -41 67
-37 130 60 1067 82 787 93 874 114 921 22 48 56 82 97 99 8 4 42 5 75 4 48 -2
69 -9 105 -34z m1370 -8 c36 -19 65 -74 74 -140 6 -42 -13 -273 -59 -705 -3
-25 -30 -290 -60 -590 -49 -478 -59 -551 -79 -596 -47 -102 -141 -138 -243
-94 -41 17 -90 61 -240 213 -206 210 -244 265 -277 407 -30 125 -18 306 26
410 29 67 597 976 643 1028 21 25 53 53 70 63 37 23 105 25 145 4z"/>
<path d="M866 2350 c-8 -33 -176 -1664 -172 -1668 2 -1 128 198 281 443 194
311 283 463 296 506 33 107 22 235 -32 346 -15 32 -79 105 -195 223 -159 161
-173 173 -178 150z"/>
<path d="M1955 1818 c-148 -238 -280 -460 -294 -493 -52 -126 -25 -304 64
-423 48 -64 321 -339 329 -331 3 3 26 201 51 440 25 238 64 607 86 819 22 211
39 392 37 402 -2 11 -112 -157 -273 -414z"/>
</g>
</svg>
